<svg width="295" height="50" viewBox="0 0 295 50" fill="none" xmlns="http://www.w3.org/2000/svg">
<path d="M91.4519 21.7458L88.4169 26.1458C87.0261 24.8906 85.5544 24.2616 84.002 24.2589C82.9069 24.2589 82.0855 24.4827 81.5379 24.9302C81.2465 25.1487 81.012 25.4338 80.8541 25.7614C80.6962 26.089 80.6194 26.4496 80.6303 26.8129C80.6287 27.1585 80.7103 27.4994 80.8682 27.8071C81.0262 28.1148 81.2558 28.3802 81.5379 28.5811C82.3371 29.1349 83.1968 29.5962 84.1006 29.9564L85.6366 30.6645C86.9694 31.2313 88.1559 32.0919 89.1069 33.1816C90.0175 34.3493 90.4923 35.7963 90.4498 37.2746C90.4498 40.0033 89.5682 42.2435 87.805 43.9953C86.0719 45.698 83.5626 46.548 80.2771 46.5453C78.4584 46.592 76.6564 46.1884 75.0326 45.3706C73.7231 44.6303 72.5394 43.6882 71.5254 42.5792L74.9136 38.257C75.5094 39.086 76.2595 39.7932 77.123 40.3403C78.0465 40.9106 79.1127 41.21 80.1991 41.2039C81.2349 41.2575 82.2596 40.9699 83.115 40.3853C83.4775 40.0918 83.7644 39.7161 83.9515 39.2896C84.1387 38.8631 84.2208 38.3982 84.191 37.9336C84.1963 37.5975 84.1324 37.2639 84.0031 36.9534C83.8738 36.6429 83.682 36.3622 83.4394 36.1286C82.8258 35.6067 82.1176 35.2065 81.3531 34.9498L79.813 34.3195C78.4212 33.8354 77.1575 33.0434 76.1169 32.0029C75.5428 31.4169 75.0931 30.7217 74.7946 29.9587C74.4961 29.1957 74.355 28.3805 74.3797 27.562C74.347 26.4642 74.5399 25.3714 74.9468 24.3508C75.3536 23.3302 75.9656 22.4033 76.7452 21.6271C78.429 19.9899 80.7946 19.1645 83.8419 19.1509C86.6028 19.116 89.2911 20.0326 91.4519 21.7458Z" fill="url(#paint0_linear_141_6308)"/>
<path d="M111.793 19.7402L111.164 24.8483H102.569L101.936 29.9195H110.216L109.587 35.0276H101.308L100.618 40.8437H109.37L108.741 45.9477H94.0469L97.279 19.7525L111.793 19.7402Z" fill="url(#paint1_linear_141_6308)"/>
<path d="M114.355 19.7402H120.664L125.28 36.5215L133.99 19.7402H140.771L126.421 45.9354H122.241L114.355 19.7402Z" fill="url(#paint2_linear_141_6308)"/>
<path d="M140.574 45.9476L143.806 19.7524H152.205C154.833 19.7524 156.765 20.3555 158 21.5615C159.13 22.6394 159.696 24.1319 159.696 26.0393C159.746 27.5012 159.313 28.9391 158.464 30.1323C157.787 31.0809 156.818 31.7836 155.704 32.1337C156.823 32.39 157.856 32.9316 158.702 33.7055C159.259 34.2448 159.697 34.8938 159.989 35.6111C160.281 36.3284 160.421 37.0984 160.398 37.8721C160.398 40.2051 159.688 42.0784 158.267 43.4918C156.624 45.129 153.983 45.9476 150.344 45.9476H140.574ZM148.024 34.8679L147.24 41.2366H149.445C151.362 41.2366 152.676 40.9091 153.388 40.2542C154.02 39.7017 154.332 38.8626 154.332 37.7371C154.354 37.379 154.302 37.0204 154.181 36.6827C154.059 36.345 153.871 36.0354 153.626 35.7724C153.018 35.1707 151.942 34.8679 150.39 34.8679H148.024ZM149.289 24.4553L148.578 30.3901H149.811C151.357 30.3901 152.473 30.0627 153.158 29.4078C153.471 29.1035 153.714 28.7352 153.871 28.3282C154.028 27.9212 154.094 27.4852 154.065 27.0502C154.08 26.683 154.014 26.3169 153.872 25.9776C153.73 25.6383 153.516 25.3339 153.244 25.0856C152.718 24.6763 151.823 24.4553 150.562 24.4553H149.289Z" fill="url(#paint3_linear_141_6308)"/>
<path d="M167.186 19.7402H173.256L171.522 34.0657C171.404 34.8202 171.338 35.582 171.325 36.3455C171.325 37.8354 171.707 38.965 172.467 39.7222C173.308 40.5081 174.464 40.901 175.937 40.901C177.646 40.901 178.934 40.4685 179.802 39.6035C180.67 38.7385 181.261 37.0754 181.576 34.6142L183.387 19.7607H189.461L187.568 35.0071C187.382 36.4478 187.224 37.5284 187.096 38.2487C186.896 39.1846 186.606 40.0989 186.229 40.9788C185.829 42.0052 185.226 42.9407 184.455 43.7293C182.615 45.6175 179.74 46.5603 175.831 46.5575C172.096 46.5575 169.324 45.6543 167.514 43.848C165.962 42.3308 165.186 40.3143 165.186 37.7985C165.186 36.9335 165.291 35.5583 165.502 33.6728L167.186 19.7402Z" fill="url(#paint4_linear_141_6308)"/>
<path d="M195.216 19.7404H203.459C204.793 19.718 206.124 19.8708 207.418 20.1948C208.586 20.5302 209.634 21.1921 210.437 22.1021C211.696 23.4146 212.326 25.195 212.326 27.4434C212.326 29.8256 211.603 31.7356 210.157 33.1736C209 34.2704 207.547 35.0071 205.976 35.2938L212.757 45.9356H205.664L199.319 35.609L198.054 45.9397H191.984L195.216 19.7404ZM200.699 24.4556L199.792 31.647H201.291C202.837 31.647 204.02 31.3332 204.839 30.7056C205.73 30.022 206.178 29.0029 206.178 27.6399C206.178 26.4611 205.757 25.6098 204.917 25.0859C204.26 24.6766 203.155 24.4556 201.603 24.4556H200.699Z" fill="url(#paint5_linear_141_6308)"/>
<path d="M230.187 36.4805L230.778 31.6467H243.099C242.967 36.4928 241.613 40.2256 239.037 42.8451C236.677 45.3009 233.445 46.5288 229.341 46.5288C225.236 46.5288 222.017 45.3009 219.681 42.8451C217.447 40.5149 216.33 37.4902 216.33 33.771C216.33 29.4979 217.644 25.9738 220.273 23.1988C221.613 21.7477 223.292 20.6484 225.16 19.9981C227.062 19.4087 229.045 19.1227 231.037 19.1508C234.007 19.1508 236.471 19.7934 238.429 21.0786C240.207 22.283 241.667 23.8978 242.684 25.7856L237.086 28.7325C236.57 27.465 235.669 26.3896 234.511 25.656C233.352 24.9224 231.993 24.567 230.622 24.6395C228.336 24.6395 226.496 25.3735 225.102 26.8415C224.253 27.7308 223.59 28.779 223.15 29.9256C222.71 31.0722 222.502 32.2943 222.54 33.5213C222.54 35.8789 223.262 37.7521 224.708 39.141C225.97 40.3989 227.77 41.0279 230.109 41.0279C231.593 41.093 233.059 40.6797 234.289 39.8491C235.423 39.0304 236.226 37.8362 236.556 36.4805H230.187Z" fill="url(#paint6_linear_141_6308)"/>
<path d="M263.894 19.7402L263.249 24.8483H254.666L254.038 29.9195H262.317L261.684 35.0276H253.393L252.686 40.8437H261.438L260.806 45.9477H246.152L249.384 19.7525L263.894 19.7402Z" fill="url(#paint7_linear_141_6308)"/>
<path d="M281.476 19.1509C285.63 19.1509 288.903 20.2915 291.296 22.5726C293.76 24.9547 294.992 28.0586 294.992 31.8842C294.989 33.8394 294.641 35.7789 293.965 37.6144C293.322 39.4403 292.286 41.1041 290.93 42.4891C288.277 45.1878 284.651 46.5357 280.051 46.533C275.846 46.533 272.507 45.2901 270.034 42.8043C268.833 41.6041 267.886 40.1746 267.251 38.6015C266.616 37.0283 266.305 35.3437 266.338 33.6483C266.338 29.3806 267.784 25.8702 270.675 23.117C273.46 20.4756 277.06 19.1536 281.476 19.1509ZM281.242 24.7337C278.663 24.7337 276.573 25.5714 274.971 27.2468C274.192 28.0414 273.579 28.9818 273.167 30.0137C272.754 31.0457 272.551 32.1488 272.568 33.2594C272.568 35.5106 273.278 37.3442 274.696 38.7604C276.141 40.2257 278.058 40.9583 280.445 40.9583C282.89 40.9583 284.848 40.2121 286.318 38.7195C287.961 37.0468 288.775 34.8994 288.762 32.2771C288.762 29.9741 288.065 28.1405 286.671 26.7761C285.278 25.4118 283.468 24.731 281.242 24.7337Z" fill="url(#paint8_linear_141_6308)"/>
<path d="M42.1857 29.7151C40.4649 28.5322 38.7113 27.423 36.9618 26.2443C36.2225 25.749 36.0911 25.7736 35.6886 26.5676C31.8829 34.1451 28.0855 41.724 24.2962 49.3042C24.2049 49.5265 24.1294 49.7549 24.0703 49.9877H24.8342C28.8507 49.9877 32.8672 49.9877 36.8837 49.9877C37.3683 49.9877 37.5942 49.8486 37.7051 49.3901C37.9145 48.5715 38.1774 47.7939 38.4074 46.9957C39.1795 44.2739 39.9433 41.548 40.7195 38.8098C41.43 36.354 42.1159 33.8572 42.8838 31.4055C43.1795 30.5092 43.1426 30.3741 42.1857 29.7151Z" fill="url(#paint9_linear_141_6308)"/>
<path d="M53.6029 49.398C53.5742 48.7309 53.6029 48.0637 53.6029 47.3966C53.5701 45.1986 53.7262 43.0007 53.1923 40.8191C52.4161 37.778 50.8719 35.3304 48.1285 33.6973C47.7383 33.4681 47.5002 33.5377 47.3646 33.9511C47.2291 34.3645 47.0854 34.9088 46.9539 35.3877C46.2804 37.6771 45.6096 39.965 44.9416 42.2517C44.7527 42.9106 44.6048 43.5778 44.4118 44.2368C43.9149 45.9067 43.3933 47.5685 42.9087 49.2425C42.7239 49.8646 42.8348 49.9833 43.4754 49.9874C45.0442 49.9874 46.6131 49.9874 48.1819 49.9874C49.7507 49.9874 51.4017 49.9874 53.0116 49.9874C53.4346 50.0038 53.6235 49.8728 53.6029 49.398Z" fill="url(#paint10_linear_141_6308)"/>
<path d="M9.90108 14.8902C8.16388 17.1168 7.33429 19.7363 6.95646 22.5032C6.81683 23.5223 6.7429 24.5497 7.31376 25.4747C7.94211 26.5061 8.54582 27.558 9.1947 28.5731C9.63003 29.2444 10.1352 29.8706 10.6075 30.5173C9.2563 24.8608 10.3939 19.8223 14.1024 15.41C17.8109 10.9978 22.7679 9.16822 28.5627 9.54887V9.35241C28.4467 9.2761 28.321 9.21554 28.1889 9.17232C26.7105 8.89809 25.2402 8.45195 23.7576 8.41102C18.0696 8.2473 13.4001 10.4002 9.90108 14.8902Z" fill="url(#paint11_linear_141_6308)"/>
<path d="M26.8715 33.0095C28.3747 29.9316 29.8805 26.8537 31.3891 23.7757C31.7998 22.9326 31.7382 22.6543 30.9538 22.114C29.5123 21.1194 28.0502 20.1494 26.6169 19.1384C24.9208 17.9391 23.1713 16.9732 20.9618 17.2024C20.1958 17.2607 19.4694 17.5652 18.8919 18.0701C17.5777 19.2325 17.3313 20.837 17.1465 22.4251C16.9329 24.2792 16.8549 26.1456 16.6906 28.0038C16.5264 29.862 16.3128 31.8349 16.1033 33.9141C16.6146 33.8805 17.1197 33.7829 17.6065 33.6235C19.5203 32.6821 19.9925 30.8198 20.317 28.9739C20.5264 27.7828 20.4977 27.6723 21.7339 27.9179C21.9187 27.9547 22.1117 27.9465 22.2924 27.9915C22.4018 28.0042 22.5069 28.0413 22.5999 28.1001C22.6929 28.1589 22.7713 28.2379 22.8294 28.3312C22.8874 28.4245 22.9236 28.5296 22.9351 28.6388C22.9467 28.7479 22.9333 28.8583 22.8961 28.9616C22.0008 30.7666 21.0891 32.5307 19.7256 34.086C18.8796 35.0519 17.2327 35.4776 15.7419 35.4326C14.9651 35.4292 14.1999 35.2441 13.5078 34.8923C10.633 33.2265 8.24281 31.0776 6.63703 28.1348C5.95496 26.9107 5.40433 25.6184 4.99428 24.2792C4.42924 22.5617 4.14093 20.7658 4.14006 18.9583C4.15238 10.6905 10.0539 3.74874 18.0705 1.69406C19.4756 1.30036 20.9273 1.09662 22.3868 1.08829H23.0029C23.708 1.08783 24.4126 1.12472 25.1138 1.1988L25.4834 1.17015L25.504 0.981876C25.3789 0.889222 25.2404 0.816075 25.0933 0.764947C23.8768 0.455304 22.6424 0.2202 21.3971 0.0609525C18.8012 -0.127072 16.1953 0.247138 13.7583 1.15787C10.1822 2.42026 7.02481 4.64143 4.63368 7.57693C2.24254 10.5124 0.710332 14.0485 0.205684 17.7959C-0.101484 20.0046 -0.0320597 22.2491 0.411027 24.4347C1.31843 28.8822 3.66768 32.909 7.097 35.8951C9.3722 37.9416 12.0868 39.1245 14.8343 40.291C15.1382 40.4179 15.282 40.5325 15.245 40.8517C15.1752 41.6703 15.1177 42.4644 15.0438 43.2707C14.9124 44.695 14.7755 46.1167 14.6331 47.5356C14.5715 48.1372 14.4893 48.7307 14.4154 49.3283C14.362 49.7867 14.4935 50.02 15.0232 49.9996C16.0089 49.9627 16.9904 49.9709 17.9761 49.9996C18.1951 50.022 18.4155 49.971 18.6022 49.8546C18.7889 49.7382 18.9313 49.5631 19.0069 49.3569C19.4504 48.3705 19.9022 47.3923 20.3704 46.4182C21.4299 44.2284 22.4977 42.0469 23.5614 39.8694L25.0892 36.7137C25.6805 35.4722 26.2747 34.2374 26.8715 33.0095Z" fill="url(#paint12_linear_141_6308)"/>
<defs>
<linearGradient id="paint0_linear_141_6308" x1="81.4763" y1="46.5371" x2="81.4763" y2="19.1509" gradientUnits="userSpaceOnUse">
<stop stop-color="#0075BE"/>
<stop offset="0.99" stop-color="#005B97"/>
</linearGradient>
<linearGradient id="paint1_linear_141_6308" x1="102.922" y1="45.9477" x2="102.922" y2="19.7402" gradientUnits="userSpaceOnUse">
<stop stop-color="#0075BE"/>
<stop offset="0.99" stop-color="#005B97"/>
</linearGradient>
<linearGradient id="paint2_linear_141_6308" x1="127.563" y1="45.9477" x2="127.563" y2="19.7402" gradientUnits="userSpaceOnUse">
<stop stop-color="#0075BE"/>
<stop offset="0.99" stop-color="#005B97"/>
</linearGradient>
<linearGradient id="paint3_linear_141_6308" x1="150.488" y1="45.9476" x2="150.488" y2="19.7402" gradientUnits="userSpaceOnUse">
<stop stop-color="#0075BE"/>
<stop offset="0.99" stop-color="#005B97"/>
</linearGradient>
<linearGradient id="paint4_linear_141_6308" x1="177.317" y1="46.5371" x2="177.317" y2="19.7402" gradientUnits="userSpaceOnUse">
<stop stop-color="#0075BE"/>
<stop offset="0.99" stop-color="#005B97"/>
</linearGradient>
<linearGradient id="paint5_linear_141_6308" x1="202.375" y1="45.9479" x2="202.375" y2="19.7404" gradientUnits="userSpaceOnUse">
<stop stop-color="#0075BE"/>
<stop offset="0.99" stop-color="#005B97"/>
</linearGradient>
<linearGradient id="paint6_linear_141_6308" x1="229.694" y1="46.537" x2="229.694" y2="19.1508" gradientUnits="userSpaceOnUse">
<stop stop-color="#0075BE"/>
<stop offset="0.99" stop-color="#005B97"/>
</linearGradient>
<linearGradient id="paint7_linear_141_6308" x1="255.023" y1="45.9477" x2="255.023" y2="19.7402" gradientUnits="userSpaceOnUse">
<stop stop-color="#0075BE"/>
<stop offset="0.99" stop-color="#005B97"/>
</linearGradient>
<linearGradient id="paint8_linear_141_6308" x1="280.667" y1="46.5371" x2="280.667" y2="19.1509" gradientUnits="userSpaceOnUse">
<stop stop-color="#0075BE"/>
<stop offset="0.99" stop-color="#005B97"/>
</linearGradient>
<linearGradient id="paint9_linear_141_6308" x1="24.0703" y1="37.9584" x2="43.0522" y2="37.9584" gradientUnits="userSpaceOnUse">
<stop stop-color="#0075BE"/>
<stop offset="0.99" stop-color="#005B97"/>
</linearGradient>
<linearGradient id="paint10_linear_141_6308" x1="42.7978" y1="41.781" x2="53.6029" y2="41.781" gradientUnits="userSpaceOnUse">
<stop stop-color="#0075BE"/>
<stop offset="0.99" stop-color="#005B97"/>
</linearGradient>
<linearGradient id="paint11_linear_141_6308" x1="6.8579" y1="19.458" x2="28.5627" y2="19.458" gradientUnits="userSpaceOnUse">
<stop stop-color="#0075BE"/>
<stop offset="0.99" stop-color="#005B97"/>
</linearGradient>
<linearGradient id="paint12_linear_141_6308" x1="0.000340594" y1="24.9996" x2="31.6519" y2="24.9996" gradientUnits="userSpaceOnUse">
<stop stop-color="#0075BE"/>
<stop offset="0.99" stop-color="#005B97"/>
</linearGradient>
</defs>
</svg>
