<svg width="33" height="60" viewBox="0 0 33 60" fill="none" xmlns="http://www.w3.org/2000/svg">
<path d="M32.2311 51.2276L18.7605 59.0041C17.7535 59.5841 15.9978 59.5103 14.8327 58.8407L1.92621 51.3857C0.766322 50.7162 0.639789 49.6986 1.64679 49.1187L15.1174 41.3421C16.1244 40.7622 17.88 40.836 19.0452 41.5056L31.9516 48.9605C33.1115 49.6301 33.2381 50.6424 32.2311 51.2276Z" fill="#CCD5DD"/>
<path d="M30.2484 49.5353C30.2537 49.4931 30.2537 49.4509 30.2484 49.4087V47.4738H27.9656L17.4158 41.3844C16.3403 40.7623 14.7111 40.6937 13.7832 41.2315L2.96986 47.4738H0.686982L0.681709 49.2717V49.3402C0.676437 49.7567 0.976954 50.189 1.56745 50.5317L13.5196 57.4331C14.5952 58.0552 16.2243 58.1237 17.1522 57.586L29.6263 50.3841C30.0217 50.1574 30.2221 49.8885 30.2484 49.5722L30.2537 49.4562L30.2484 49.5353Z" fill="white"/>
<path d="M15.572 58.0082C14.8444 58.0082 14.08 57.8342 13.4842 57.4862L1.53202 50.5848C0.941526 50.2474 0.609375 49.7887 0.609375 49.3353V49.2721L0.614648 47.469C0.614648 47.432 0.646279 47.4057 0.677913 47.4057H2.94498L13.7425 41.1739C14.6915 40.6256 16.3523 40.6941 17.4436 41.3268L27.9776 47.411H30.2446C30.2816 47.411 30.3079 47.4426 30.3079 47.4742V49.4091C30.3132 49.4513 30.3132 49.4988 30.3079 49.5409C30.3079 49.5462 30.3079 49.5515 30.3026 49.5568V49.5726C30.2763 49.9153 30.0548 50.2052 29.6489 50.4425L17.1748 57.6444C16.753 57.8869 16.1783 58.0082 15.572 58.0082ZM0.746454 47.5428L0.741181 49.2773V49.3406C0.735909 49.7466 1.05224 50.1631 1.59529 50.4794L13.5475 57.3808C14.6019 57.9923 16.2047 58.0556 17.1168 57.5337L29.5909 50.3318C29.9599 50.1156 30.155 49.8678 30.1814 49.5726L30.1867 49.4619C30.1867 49.4513 30.1867 49.4408 30.1867 49.425V47.5533H27.967C27.9565 47.5533 27.9459 47.548 27.9354 47.5428L17.3856 41.4533C16.3312 40.8417 14.7284 40.7732 13.8163 41.3004L2.9977 47.5322C2.98716 47.5375 2.97661 47.5428 2.96607 47.5428H0.746454Z" fill="#16110D"/>
<path d="M30.2447 47.4784V49.4133C30.2499 49.4555 30.2499 49.4977 30.2447 49.5399V49.5715C30.2183 49.8878 30.018 50.1515 29.6225 50.3834L17.1537 57.5853C16.8795 57.7435 16.5474 57.8489 16.1836 57.9069V40.9567C16.6212 41.0305 17.043 41.1781 17.412 41.389L27.9671 47.4837H30.2447V47.4784Z" fill="#CCD5DD"/>
<path d="M15.5736 58.1385C14.8249 58.1385 14.0341 57.9593 13.4172 57.6007L1.47034 50.7046C0.83767 50.3409 0.47916 49.8453 0.484432 49.3391V49.2811L0.489702 47.478C0.489702 47.3673 0.579332 47.283 0.690049 47.283C0.800766 47.283 0.88512 47.3726 0.88512 47.4833L0.87985 49.2811V49.3391C0.87985 49.7029 1.16455 50.0773 1.67069 50.3672L13.6229 57.2686C14.6404 57.8591 16.1852 57.9223 17.0604 57.4215L29.5345 50.2196C29.8666 50.0298 30.0353 49.8136 30.0564 49.5606L30.0617 49.4551C30.0617 49.4446 30.0617 49.4393 30.0617 49.4288V47.4833C30.0617 47.3726 30.1513 47.283 30.262 47.283C30.3728 47.283 30.4624 47.3726 30.4624 47.4833V49.4182C30.4677 49.4551 30.4677 49.5078 30.4624 49.5606C30.4624 49.5658 30.4624 49.5764 30.4571 49.5817C30.4255 49.9771 30.183 50.2987 29.7401 50.557L17.266 57.7589C16.802 58.012 16.201 58.1385 15.5736 58.1385Z" fill="#16110D"/>
<path d="M15.572 58.0082C14.8444 58.0082 14.08 57.8342 13.4842 57.4862L1.53202 50.5848C0.941526 50.2474 0.609375 49.7887 0.609375 49.3353V49.2721L0.614648 47.469C0.614648 47.432 0.646279 47.4057 0.677913 47.4057H2.94498L13.7425 41.1739C14.6915 40.6256 16.3523 40.6941 17.4436 41.3268L27.9776 47.411H30.2446C30.2816 47.411 30.3079 47.4426 30.3079 47.4742V49.4091C30.3132 49.4513 30.3132 49.4988 30.3079 49.5409C30.3079 49.5462 30.3079 49.5515 30.3026 49.5568V49.5726C30.2763 49.9153 30.0548 50.2052 29.6489 50.4425L17.1748 57.6444C16.753 57.8869 16.1783 58.0082 15.572 58.0082ZM0.746454 47.5428L0.741181 49.2773V49.3406C0.735909 49.7466 1.05224 50.1631 1.59529 50.4794L13.5475 57.3808C14.6019 57.9923 16.2047 58.0556 17.1168 57.5337L29.5909 50.3318C29.9599 50.1156 30.155 49.8678 30.1814 49.5726L30.1867 49.4619C30.1867 49.4513 30.1867 49.4408 30.1867 49.425V47.5533H27.967C27.9565 47.5533 27.9459 47.548 27.9354 47.5428L17.3856 41.4533C16.3312 40.8417 14.7284 40.7732 13.8163 41.3004L2.9977 47.5322C2.98716 47.5375 2.97661 47.5428 2.96607 47.5428H0.746454Z" fill="#16110D"/>
<path d="M29.6217 48.4487L17.1475 55.6506C16.2144 56.1883 14.5905 56.1198 13.515 55.4977L1.5628 48.5963C0.487262 47.9742 0.371274 47.0357 1.30446 46.4979L13.7786 39.2961C14.7118 38.7583 16.3356 38.8268 17.4112 39.449L29.3633 46.3503C30.4389 46.9724 30.5549 47.9109 29.6217 48.4487Z" fill="white"/>
<path d="M15.572 56.078C14.8444 56.078 14.08 55.904 13.4842 55.5561L1.53202 48.6547C0.946798 48.3173 0.609375 47.8639 0.609375 47.4104C0.609375 47.0308 0.846627 46.6881 1.27368 46.4403L13.7478 39.2385C14.6968 38.6902 16.3576 38.7587 17.4489 39.3914L29.4011 46.2927C29.9863 46.6301 30.3237 47.0836 30.3237 47.537C30.3237 47.9166 30.0865 48.2593 29.6594 48.5071L17.1853 55.7089C16.753 55.9567 16.1783 56.078 15.572 56.078ZM15.3558 39.0012C14.7759 39.0012 14.2223 39.1172 13.8111 39.3545L1.33694 46.5563C0.952069 46.7778 0.741181 47.0836 0.741181 47.4104C0.741181 47.8164 1.05224 48.2276 1.60056 48.5387L13.5527 55.4401C14.6072 56.0516 16.2099 56.1202 17.122 55.593L29.5962 48.3911C29.981 48.1696 30.1919 47.8639 30.1919 47.537C30.1919 47.131 29.8809 46.7198 29.3326 46.4087L17.3804 39.5074C16.8004 39.1752 16.057 39.0012 15.3558 39.0012Z" fill="#16110D"/>
<path d="M28.3693 49.6716L17.1605 56.1406C16.3222 56.6257 14.8618 56.5624 13.8917 56.0035L3.15744 49.8034C2.19262 49.2445 2.08717 48.401 2.92546 47.9159L14.1342 41.4469C14.9725 40.9618 16.4329 41.0251 17.403 41.584L28.1426 47.7841C29.1021 48.343 29.2076 49.1865 28.3693 49.6716Z" fill="#4996D1"/>
<path d="M15.572 56.078C14.8444 56.078 14.08 55.904 13.4842 55.5561L1.53202 48.6547C0.946798 48.3173 0.609375 47.8639 0.609375 47.4104C0.609375 47.0308 0.846627 46.6881 1.27368 46.4403L13.7478 39.2385C14.6968 38.6902 16.3576 38.7587 17.4489 39.3914L29.4011 46.2927C29.9863 46.6301 30.3237 47.0836 30.3237 47.537C30.3237 47.9166 30.0865 48.2593 29.6594 48.5071L17.1853 55.7089C16.753 55.9567 16.1783 56.078 15.572 56.078ZM15.3558 39.0012C14.7759 39.0012 14.2223 39.1172 13.8111 39.3545L1.33694 46.5563C0.952069 46.7778 0.741181 47.0836 0.741181 47.4104C0.741181 47.8164 1.05224 48.2276 1.60056 48.5387L13.5527 55.4401C14.6072 56.0516 16.2099 56.1202 17.122 55.593L29.5962 48.3911C29.981 48.1696 30.1919 47.8639 30.1919 47.537C30.1919 47.131 29.8809 46.7198 29.3326 46.4087L17.3804 39.5074C16.8004 39.1752 16.057 39.0012 15.3558 39.0012Z" fill="#16110D"/>
<path d="M30.245 48.8337C30.1343 48.8337 30.0447 48.744 30.0447 48.6333V47.426C30.0447 47.1413 29.7494 46.7986 29.2591 46.5192L17.3069 39.6178C16.2894 39.0273 14.7446 38.9588 13.8694 39.4649L1.3953 46.6668C1.04206 46.8724 0.873348 47.1465 0.873348 47.5156V48.6333C0.873348 48.744 0.783721 48.8337 0.673004 48.8337C0.562287 48.8337 0.472656 48.744 0.472656 48.6333V47.5156C0.472656 47.0042 0.715181 46.6035 1.19495 46.3241L13.6691 39.1222C14.655 38.5528 16.3737 38.6213 17.502 39.2751L29.4542 46.1765C30.0868 46.5402 30.4348 46.9884 30.4348 47.426V48.6333C30.4453 48.7493 30.3557 48.8337 30.245 48.8337Z" fill="#16110D"/>
<path d="M25.6769 47.4991L24.4696 40.002L24.3905 39.4959L23.4099 33.417L23.3308 32.9108L22.3712 26.9585L22.3185 26.6369L21.9653 26.4312L15.8231 22.8883L9.68622 26.4312L9.32771 26.6369L9.27499 26.9585L8.28908 32.7369L8.20472 33.243L7.16609 39.3166L7.07646 39.828L5.76367 47.4939L6.28035 47.652L6.34362 47.3515L11.1677 46.1494L15.4804 52.803L16.0076 52.7503L20.373 46.1758L25.1181 47.3515L25.1866 47.6151L25.6769 47.4991ZM24.9863 46.7557L20.6947 45.6907L24.0109 40.6927L24.9863 46.7557ZM14.9637 44.631L11.4155 45.5168L8.25217 40.6347L14.9637 44.631ZM8.07292 39.8755L11.7108 38.8896L14.8425 43.9087L8.07292 39.8755ZM12.2749 38.7367L15.5015 37.8615L15.4751 43.8718L12.2749 38.7367ZM12.2749 32.062L14.9532 36.7174L9.13263 33.2535L12.2749 32.062ZM8.84793 32.7579L9.72313 27.6333L11.9902 31.5717L8.84793 32.7579ZM22.4661 33.4012L16.5032 36.7543L19.2553 32.1095L22.4661 33.4012ZM19.5453 31.6191L21.9073 27.628L22.7561 32.9108L19.5453 31.6191ZM22.2552 34.1604L19.5453 38.3149L16.4505 37.4239L22.2552 34.1604ZM16.0709 36.3747L16.0973 30.8336L18.7281 31.8933L16.0709 36.3747ZM15.512 36.5698L12.8074 31.8617L15.5384 30.8283L15.512 36.5698ZM15.0165 37.4081L11.9638 38.2358L9.33825 34.0233L15.0165 37.4081ZM16.0656 37.8984L19.2237 38.8105L16.0393 43.6978L16.0656 37.8984ZM19.7878 38.9686L23.452 40.0231L16.5559 43.9245L19.7878 38.9686ZM23.2939 40.7612L20.12 45.5431L16.4452 44.631L23.2939 40.7612ZM23.8264 39.5486L20.1094 38.4783L22.9512 34.1182L23.8264 39.5486ZM19.0181 31.4082L16.461 30.3802L21.2746 27.6017L19.0181 31.4082ZM15.8178 23.5421L21.496 26.8214L15.8178 30.1007L10.1396 26.8214L15.8178 23.5421ZM15.1694 30.3696L12.5227 31.3713L10.3453 27.5859L15.1694 30.3696ZM8.64231 33.9653L11.3997 38.3887L7.7144 39.3904L8.64231 33.9653ZM6.45434 46.7505L7.51933 40.5345L10.8408 45.6591L6.45434 46.7505ZM11.7371 46.0124L15.4751 45.0844L15.4435 51.738L11.7371 46.0124ZM16.0024 51.7433L16.034 45.1161L19.7878 46.044L16.0024 51.7433Z" fill="#16110D"/>
<path d="M15.8297 22.0873L8.23242 25.9097V26.769L15.8297 31.1555L23.427 26.769V25.9097L15.8297 22.0873ZM15.8297 28.7408L10.9213 25.9097L15.8297 23.0785L20.7382 25.9097L15.8297 28.7408Z" fill="white"/>
<path d="M15.8242 31.1552V28.7405L22.0296 25.1027L23.4268 25.9093V26.7687L15.8242 31.1552Z" fill="#CCD5DD"/>
<path d="M15.8285 31.2238C15.818 31.2238 15.8074 31.2185 15.7969 31.2133L8.1996 26.8268C8.17851 26.8162 8.16797 26.7951 8.16797 26.7688V25.9094C8.16797 25.883 8.18379 25.8619 8.20487 25.8514L15.8022 22.029C15.8233 22.0185 15.8444 22.0185 15.8602 22.029L23.4575 25.8514C23.4786 25.8619 23.4944 25.883 23.4944 25.9094V26.7688C23.4944 26.7899 23.4838 26.8162 23.4627 26.8268L15.8654 31.2133C15.8549 31.2185 15.8444 31.2238 15.8285 31.2238ZM8.29977 26.7319L15.8338 31.0815L23.3678 26.7319V25.9516L15.8338 22.1661L8.29977 25.9516V26.7319ZM15.8285 28.8091C15.818 28.8091 15.8074 28.8039 15.7969 28.7986L10.8884 25.9674C10.8674 25.9568 10.8568 25.9358 10.8568 25.9094C10.8568 25.883 10.8674 25.8619 10.8884 25.8514L15.7969 23.0202C15.818 23.0097 15.8444 23.0097 15.8602 23.0202L20.7686 25.8514C20.7897 25.8619 20.8003 25.883 20.8003 25.9094C20.8003 25.9358 20.7897 25.9568 20.7686 25.9674L15.8602 28.7986C15.8549 28.8039 15.8444 28.8091 15.8285 28.8091ZM11.0572 25.9094L15.8338 28.6668L20.6105 25.9094L15.8338 23.152L11.0572 25.9094Z" fill="#16110D"/>
<path d="M15.8297 21.5219L8.23242 25.9084L15.8297 30.2949L23.427 25.9084L15.8297 21.5219Z" fill="white"/>
<path d="M15.8285 30.3585C15.818 30.3585 15.8074 30.3532 15.7969 30.348L8.1996 25.9615C8.17851 25.9509 8.16797 25.9298 8.16797 25.9035C8.16797 25.8771 8.17851 25.856 8.1996 25.8455L15.7969 21.459C15.818 21.4484 15.8444 21.4484 15.8602 21.459L23.4575 25.8455C23.4786 25.856 23.4891 25.8771 23.4891 25.9035C23.4891 25.9298 23.4786 25.9509 23.4575 25.9615L15.8602 30.348C15.8549 30.3585 15.8444 30.3585 15.8285 30.3585ZM8.36304 25.9087L15.8285 30.2214L23.294 25.9087L15.8285 21.596L8.36304 25.9087Z" fill="#16110D"/>
<path d="M15.8232 23.1149L9.41211 26.816L15.8232 30.5171L22.2342 26.816L15.8232 23.1149Z" fill="#4996D1"/>
<path d="M15.8285 30.3585C15.818 30.3585 15.8074 30.3532 15.7969 30.348L8.1996 25.9615C8.17851 25.9509 8.16797 25.9298 8.16797 25.9035C8.16797 25.8771 8.17851 25.856 8.1996 25.8455L15.7969 21.459C15.818 21.4484 15.8444 21.4484 15.8602 21.459L23.4575 25.8455C23.4786 25.856 23.4891 25.8771 23.4891 25.9035C23.4891 25.9298 23.4786 25.9509 23.4575 25.9615L15.8602 30.348C15.8549 30.3585 15.8444 30.3585 15.8285 30.3585ZM8.36304 25.9087L15.8285 30.2214L23.294 25.9087L15.8285 21.596L8.36304 25.9087Z" fill="#16110D"/>
<path d="M9.87159 26.2158C9.82942 26.2369 9.78724 26.2527 9.74506 26.2527C9.67652 26.2527 9.61325 26.2263 9.5658 26.1789C9.48145 26.0945 9.46563 25.968 9.5289 25.8678L15.5972 15.5395C15.6447 15.4604 15.7291 15.413 15.8187 15.413C15.9083 15.413 15.9927 15.4604 16.0401 15.5395L22.1085 25.8678C22.1665 25.968 22.1506 26.0945 22.0716 26.1789C21.9925 26.2632 21.8607 26.2791 21.7605 26.2211L21.1753 25.2931L15.8187 16.1774L10.4621 25.2931L9.87159 26.2158Z" fill="#16110D"/>
<path d="M10.4231 19.0354C10.3599 19.0354 10.2913 19.009 10.2439 18.9616C10.1595 18.8825 10.1437 18.7559 10.1964 18.6558L15.5847 8.72287C15.6268 8.63851 15.7165 8.59106 15.8114 8.59106C15.9063 8.59106 15.9906 8.64379 16.0381 8.72287L21.4263 18.6558C21.479 18.7559 21.4632 18.8825 21.3789 18.9616C21.2945 19.0406 21.1732 19.0565 21.0731 18.9985L15.8166 15.9617L10.5602 18.9985C10.5128 19.0196 10.4653 19.0354 10.4231 19.0354ZM15.8114 15.4133C15.8535 15.4133 15.901 15.4239 15.9379 15.4503L20.5406 18.1075L15.8114 9.38717L11.0822 18.1075L15.6848 15.4503C15.7217 15.4239 15.7639 15.4133 15.8114 15.4133Z" fill="#16110D"/>
<path d="M11.1012 11.8172C11.0379 11.8172 10.9746 11.7961 10.9272 11.7487C10.8428 11.6696 10.8217 11.5483 10.8744 11.4481L15.5773 1.91066C15.6195 1.82104 15.7091 1.76831 15.8093 1.76831C15.9042 1.76831 15.9938 1.82104 16.0412 1.91066L20.7441 11.4481C20.7915 11.5483 20.7704 11.6696 20.6914 11.7487C20.607 11.8277 20.4857 11.8383 20.3908 11.7856L15.8145 9.14418L11.2382 11.7856C11.1908 11.8067 11.1486 11.8172 11.1012 11.8172ZM15.8093 8.59059C15.8514 8.59059 15.8989 8.60114 15.9358 8.6275L19.9111 10.9209L15.8093 2.6066L11.7075 10.9209L15.6827 8.6275C15.7196 8.60114 15.7618 8.59059 15.8093 8.59059Z" fill="#16110D"/>
<path d="M11.7894 4.59965C11.6998 4.59965 11.6154 4.5522 11.568 4.47312C11.4994 4.35186 11.5416 4.19369 11.6629 4.12515L15.6856 1.80536C15.7647 1.75791 15.8649 1.75791 15.9439 1.80536L19.9667 4.12515C20.0879 4.19369 20.1301 4.35186 20.0616 4.47312C19.993 4.59438 19.8349 4.63656 19.7136 4.56802L15.8227 2.32204L11.9318 4.56802C11.879 4.58911 11.8316 4.59965 11.7894 4.59965Z" fill="#16110D"/>
<path d="M21.6167 25.8523L19.5816 4.36791C19.5658 4.22556 19.6713 4.1043 19.8136 4.08849C19.9507 4.07267 20.0772 4.17811 20.0931 4.32047L22.144 25.9683C22.1545 26.0685 22.1018 26.1634 22.0174 26.2161L21.6167 25.8523Z" fill="#16110D"/>
<path d="M9.6181 26.2161C9.53375 26.1686 9.48103 26.0685 9.49157 25.9683L11.5425 4.32047C11.5583 4.17811 11.6796 4.07267 11.8219 4.08849C11.9643 4.1043 12.0644 4.22556 12.0539 4.36791L10.0188 25.8523L9.6181 26.2161Z" fill="#16110D"/>
<path d="M15.8222 22.1409C15.78 22.1409 15.7326 22.1303 15.6956 22.1039L10.3074 18.9933C10.1862 18.9248 10.144 18.7666 10.2125 18.6454C10.2811 18.5241 10.4392 18.4819 10.5605 18.5505L15.8169 21.5873L21.0733 18.5505C21.1946 18.4819 21.3528 18.5188 21.4213 18.6454C21.4898 18.7666 21.4477 18.9248 21.3264 18.9933L15.9382 22.1039C15.9065 22.1303 15.8644 22.1409 15.8222 22.1409Z" fill="#16110D"/>
<path d="M15.8243 14.5329C15.7821 14.5329 15.7347 14.5224 15.6978 14.496L10.9949 11.7808C10.8737 11.7123 10.8315 11.5541 10.9 11.4328C10.9686 11.3116 11.1267 11.2694 11.248 11.3379L15.8243 13.9793L20.4006 11.3379C20.5219 11.2694 20.68 11.3063 20.7486 11.4328C20.8171 11.5541 20.7749 11.7123 20.6537 11.7808L15.9508 14.496C15.9086 14.5224 15.8665 14.5329 15.8243 14.5329Z" fill="#16110D"/>
<path d="M15.82 6.92516C15.7778 6.92516 15.7303 6.91462 15.6934 6.88825L11.6707 4.56847C11.5494 4.49993 11.5073 4.34176 11.5758 4.2205C11.6443 4.09924 11.8025 4.05706 11.9238 4.1256L15.8147 6.37158L19.7056 4.1256C19.8269 4.05706 19.985 4.09924 20.0536 4.2205C20.1221 4.34176 20.0799 4.49993 19.9587 4.56847L15.9359 6.88825C15.9043 6.90934 15.8621 6.92516 15.82 6.92516Z" fill="#16110D"/>
<path d="M15.8189 29.7534C15.6765 29.7534 15.5605 29.6375 15.5605 29.4951V6.6663C15.5605 6.52395 15.6765 6.40796 15.8189 6.40796C15.9612 6.40796 16.0772 6.52395 16.0772 6.6663V29.4951C16.072 29.6375 15.956 29.7534 15.8189 29.7534Z" fill="#16110D"/>
<path d="M15.8152 29.659C15.7782 29.659 15.7361 29.6485 15.6992 29.6326C15.5726 29.5694 15.5252 29.4165 15.5884 29.29L20.982 18.7086C21.0452 18.582 21.1981 18.5346 21.3246 18.5978C21.4512 18.6611 21.4986 18.814 21.4354 18.9405L16.0419 29.5219C15.9944 29.6116 15.9048 29.659 15.8152 29.659Z" fill="#16110D"/>
<path d="M15.8151 22.0616C15.7782 22.0616 15.7413 22.0563 15.7096 22.0352C15.5831 21.9772 15.5251 21.8243 15.5831 21.6978L20.2965 11.5224C20.3545 11.3958 20.5074 11.3378 20.6339 11.3958C20.7604 11.4538 20.8184 11.6067 20.7604 11.7333L16.0471 21.9087C15.9996 22.0089 15.91 22.0616 15.8151 22.0616Z" fill="#16110D"/>
<path d="M15.8239 14.3852C15.7922 14.3852 15.7606 14.3799 15.729 14.3641C15.5972 14.3114 15.5339 14.1585 15.5919 14.0319L19.6146 4.25192C19.6673 4.12012 19.8202 4.05685 19.9468 4.11485C20.0786 4.16757 20.1418 4.32046 20.0838 4.447L16.0611 14.227C16.0189 14.3219 15.9241 14.3852 15.8239 14.3852Z" fill="#16110D"/>
<path d="M15.818 29.6583C15.7231 29.6583 15.6335 29.6056 15.5913 29.516L10.1978 18.9346C10.1346 18.808 10.182 18.6551 10.3085 18.5919C10.4351 18.5286 10.588 18.576 10.6512 18.7026L16.0447 29.284C16.108 29.4105 16.0606 29.5634 15.934 29.6267C15.8971 29.653 15.8549 29.6583 15.818 29.6583Z" fill="#16110D"/>
<path d="M15.8229 22.0613C15.728 22.0613 15.6331 22.0086 15.5909 21.9137L10.8828 11.7383C10.8248 11.6117 10.8775 11.4588 11.0093 11.4008C11.1358 11.3428 11.2887 11.3956 11.3467 11.5274L16.0548 21.7028C16.1128 21.8293 16.0601 21.9822 15.9283 22.0402C15.8914 22.056 15.8545 22.0613 15.8229 22.0613Z" fill="#16110D"/>
<path d="M15.8157 14.3852C15.7156 14.3852 15.6207 14.3272 15.5785 14.227L11.5558 4.44699C11.503 4.31518 11.5663 4.16756 11.6928 4.11484C11.8246 4.06212 11.9723 4.12538 12.025 4.25191L16.0477 14.0319C16.1004 14.1637 16.0372 14.3113 15.9106 14.3641C15.879 14.3746 15.8474 14.3852 15.8157 14.3852Z" fill="#16110D"/>
<path d="M15.8313 0.814453L10.8438 3.32404V4.10433L15.8313 6.98297L20.8188 4.10433V3.32404L15.8313 0.814453ZM15.8313 5.39603L12.6099 3.53493L15.8313 1.67383L19.0526 3.53493L15.8313 5.39603Z" fill="white"/>
<path d="M15.8242 6.98357V5.39663L19.8997 3.0083L20.817 3.31937V4.09965L15.8242 6.98357Z" fill="#CCD5DD"/>
<path d="M15.8321 7.04686C15.8215 7.04686 15.811 7.04159 15.8004 7.03632L10.8129 4.15767C10.7918 4.14713 10.7812 4.12604 10.7812 4.09968V3.31939C10.7812 3.29303 10.7971 3.27194 10.8182 3.26139L15.8057 0.751805C15.8268 0.74126 15.8479 0.74126 15.8637 0.751805L20.8512 3.26139C20.8723 3.27194 20.8881 3.29303 20.8881 3.31939V4.09968C20.8881 4.12077 20.8776 4.14713 20.8565 4.15767L15.869 7.03632C15.8584 7.04686 15.8479 7.04686 15.8321 7.04686ZM10.9131 4.06277L15.8373 6.90451L20.7616 4.06277V3.36157L15.8321 0.888884L10.9078 3.36157V4.06277H10.9131ZM15.8321 5.45992C15.8215 5.45992 15.811 5.45465 15.8004 5.44937L12.5791 3.58827C12.558 3.57773 12.5475 3.55664 12.5475 3.53028C12.5475 3.50392 12.558 3.48283 12.5791 3.47228L15.8004 1.61118C15.8215 1.60064 15.8479 1.60064 15.8637 1.61118L19.085 3.47228C19.1061 3.48283 19.1167 3.50392 19.1167 3.53028C19.1167 3.55664 19.1061 3.57773 19.085 3.58827L15.8637 5.44937C15.8584 5.45992 15.8479 5.45992 15.8321 5.45992ZM12.7425 3.53555L15.8321 5.31757L18.9216 3.53555L15.8321 1.75353L12.7425 3.53555Z" fill="#16110D"/>
<path d="M15.8332 0.44043L10.8457 3.31907L15.8332 6.19772L20.8208 3.31907L15.8332 0.44043Z" fill="white"/>
<path d="M15.8321 6.26673C15.8215 6.26673 15.811 6.26146 15.8004 6.25619L10.8129 3.37754C10.7918 3.367 10.7812 3.34591 10.7812 3.31955C10.7812 3.29319 10.7918 3.2721 10.8129 3.26155L15.8004 0.382908C15.8215 0.372364 15.8479 0.372364 15.8637 0.382908L20.8512 3.26155C20.8723 3.2721 20.8829 3.29319 20.8829 3.31955C20.8829 3.34591 20.8723 3.367 20.8512 3.37754L15.8637 6.25619C15.8584 6.26673 15.8479 6.26673 15.8321 6.26673ZM10.9763 3.31955L15.8321 6.12438L20.6878 3.31955L15.8321 0.514714L10.9763 3.31955Z" fill="#16110D"/>
<path d="M16.1953 4.62104C17.6483 4.62104 18.8261 3.94122 18.8261 3.10263C18.8261 2.26404 17.6483 1.58423 16.1953 1.58423C14.7423 1.58423 13.5645 2.26404 13.5645 3.10263C13.5645 3.94122 14.7423 4.62104 16.1953 4.62104Z" fill="#CCD5DD"/>
<path d="M13.2637 2.37964V2.92795C13.2637 3.30755 13.5167 3.69243 14.0176 3.9824C15.0246 4.56235 16.659 4.56235 17.666 3.9824C18.1721 3.69243 18.4199 3.30755 18.4199 2.92795V2.37964H13.2637Z" fill="white"/>
<path d="M15.8459 4.47793C15.171 4.47793 14.5015 4.33031 13.9901 4.03506C13.4786 3.73981 13.1992 3.3444 13.1992 2.92262V2.3743C13.1992 2.3374 13.2309 2.31104 13.2625 2.31104H18.424C18.4609 2.31104 18.4873 2.34267 18.4873 2.3743V2.92262C18.4873 3.3444 18.2078 3.73981 17.6964 4.03506C17.1903 4.33031 16.5155 4.47793 15.8459 4.47793ZM13.331 2.44811V2.92789C13.331 3.30222 13.5894 3.65546 14.0533 3.92434C15.0392 4.49375 16.6473 4.49375 17.6384 3.92434C18.1024 3.65546 18.3607 3.30222 18.3607 2.92789V2.44811H13.331Z" fill="#16110D"/>
<path d="M16.0716 2.70187V4.41534C15.6656 4.39425 14.3475 4.22554 14.0417 4.04628C13.9996 4.0252 13.8519 3.88284 13.8203 3.85648V2.51733L16.0716 2.70187Z" fill="#4996D1"/>
<path d="M15.8459 4.47793C15.171 4.47793 14.5015 4.33031 13.9901 4.03506C13.4786 3.73981 13.1992 3.3444 13.1992 2.92262V2.3743C13.1992 2.3374 13.2309 2.31104 13.2625 2.31104H18.424C18.4609 2.31104 18.4873 2.34267 18.4873 2.3743V2.92262C18.4873 3.3444 18.2078 3.73981 17.6964 4.03506C17.1903 4.33031 16.5155 4.47793 15.8459 4.47793ZM13.331 2.44811V2.92789C13.331 3.30222 13.5894 3.65546 14.0533 3.92434C15.0392 4.49375 16.6473 4.49375 17.6384 3.92434C18.1024 3.65546 18.3607 3.30222 18.3607 2.92789V2.44811H13.331Z" fill="#16110D"/>
<path d="M15.8471 3.87252C17.2738 3.87252 18.4305 3.20451 18.4305 2.38047C18.4305 1.55644 17.2738 0.888428 15.8471 0.888428C14.4203 0.888428 13.2637 1.55644 13.2637 2.38047C13.2637 3.20451 14.4203 3.87252 15.8471 3.87252Z" fill="white"/>
<path d="M15.8459 3.93582C15.171 3.93582 14.5015 3.7882 13.9901 3.49295C13.4839 3.1977 13.1992 2.80229 13.1992 2.38051C13.1992 1.95873 13.4786 1.56331 13.9901 1.26806C15.0129 0.677573 16.6789 0.677573 17.707 1.26806C18.2131 1.56331 18.4978 1.95873 18.4978 2.38051C18.4978 2.80229 18.2184 3.1977 17.707 3.49295C17.1903 3.7882 16.5155 3.93582 15.8459 3.93582ZM15.8459 0.956999C15.1974 0.956999 14.5489 1.09935 14.0533 1.38405C13.5894 1.65294 13.331 2.00618 13.331 2.38051C13.331 2.75484 13.5894 3.10808 14.0533 3.37696C15.0392 3.94636 16.6473 3.94636 17.6384 3.37696C18.1024 3.10808 18.3607 2.75484 18.3607 2.38051C18.3607 2.00618 18.1024 1.65294 17.6384 1.38405C17.1429 1.09935 16.4944 0.956999 15.8459 0.956999Z" fill="#16110D"/>
<path d="M13.1691 2.17447C13.1375 2.17447 13.1111 2.1692 13.0848 2.15338C12.9846 2.10593 12.9477 1.98467 12.9951 1.88977C13.148 1.58398 13.4644 1.37836 13.807 1.17801C14.9248 0.529529 16.749 0.529529 17.8667 1.17801C18.1777 1.35727 18.5152 1.5787 18.6733 1.88449C18.726 1.97939 18.6891 2.10066 18.589 2.15338C18.4941 2.2061 18.3728 2.16919 18.3201 2.06902C18.2094 1.85286 17.9089 1.66306 17.6663 1.52071C16.6541 0.935488 15.0144 0.935488 14.0021 1.52071C13.7121 1.68942 13.4485 1.85286 13.3431 2.06375C13.3115 2.13229 13.2429 2.17447 13.1691 2.17447Z" fill="#16110D"/>
<path d="M15.9667 3.53501C17.0907 3.53501 18.0018 3.00863 18.0018 2.35931C18.0018 1.70998 17.0907 1.18359 15.9667 1.18359C14.8428 1.18359 13.9316 1.70998 13.9316 2.35931C13.9316 3.00863 14.8428 3.53501 15.9667 3.53501Z" fill="#CCD5DD"/>
<path d="M17.7335 1.29932V2.34849C17.7335 2.62792 17.549 2.90735 17.1799 3.12351C16.7581 3.37131 16.1887 3.47675 15.6352 3.43985C15.2134 3.41876 14.8127 3.31331 14.4911 3.12351C14.4436 3.10242 14.4067 3.07079 14.3751 3.04443C14.0851 2.84935 13.9375 2.59629 13.9375 2.34849V1.29932H17.7335Z" fill="white"/>
<path d="M15.8615 3.51369C15.7824 3.51369 15.7086 3.50842 15.6295 3.50314C15.1866 3.48206 14.7806 3.36607 14.4538 3.18154C14.4116 3.16045 14.3694 3.13409 14.3272 3.09718C14.032 2.89684 13.8633 2.63322 13.8633 2.34852V1.29935C13.8633 1.26244 13.8949 1.23608 13.9265 1.23608H17.7278C17.7647 1.23608 17.7911 1.26771 17.7911 1.29935V2.34852C17.7911 2.66486 17.5802 2.9601 17.2006 3.18154C16.8474 3.39243 16.3623 3.51369 15.8615 3.51369ZM14.0004 1.36789V2.3538C14.0004 2.59105 14.148 2.81775 14.4063 2.99701C14.4485 3.02864 14.4801 3.055 14.517 3.07082C14.8228 3.24481 15.2182 3.35552 15.6348 3.37661C16.1936 3.41879 16.7419 3.30807 17.1426 3.07082C17.48 2.87575 17.6646 2.62268 17.6646 2.3538V1.36789H14.0004Z" fill="#16110D"/>
<path d="M15.637 1.65273V3.43475C15.2152 3.41366 14.8145 3.30822 14.4929 3.11842C14.4455 3.09733 14.4086 3.06569 14.377 3.03933V1.64746H15.637V1.65273Z" fill="#4996D1"/>
<path d="M15.8615 3.51369C15.7824 3.51369 15.7086 3.50842 15.6295 3.50314C15.1866 3.48206 14.7806 3.36607 14.4538 3.18154C14.4116 3.16045 14.3694 3.13409 14.3272 3.09718C14.032 2.89684 13.8633 2.63322 13.8633 2.34852V1.29935C13.8633 1.26244 13.8949 1.23608 13.9265 1.23608H17.7278C17.7647 1.23608 17.7911 1.26771 17.7911 1.29935V2.34852C17.7911 2.66486 17.5802 2.9601 17.2006 3.18154C16.8474 3.39243 16.3623 3.51369 15.8615 3.51369ZM14.0004 1.36789V2.3538C14.0004 2.59105 14.148 2.81775 14.4063 2.99701C14.4485 3.02864 14.4801 3.055 14.517 3.07082C14.8228 3.24481 15.2182 3.35552 15.6348 3.37661C16.1936 3.41879 16.7419 3.30807 17.1426 3.07082C17.48 2.87575 17.6646 2.62268 17.6646 2.3538V1.36789H14.0004Z" fill="#16110D"/>
<path d="M17.1115 0.508574C17.8127 0.914536 17.8127 1.57357 17.1115 1.97953C16.4103 2.38549 15.2662 2.38549 14.565 1.97953C13.8638 1.57357 13.8638 0.914536 14.565 0.508574C15.2662 0.102611 16.405 0.102611 17.1115 0.508574Z" fill="white"/>
<path d="M15.8332 2.34842C15.3587 2.34842 14.8842 2.24298 14.5257 2.03736C14.1619 1.82647 13.9668 1.54704 13.9668 1.24653C13.9668 0.946009 14.1671 0.661308 14.5257 0.455691C15.248 0.0391838 16.4184 0.0391838 17.1407 0.455691C17.5045 0.66658 17.6995 0.946009 17.6995 1.24653C17.6995 1.54704 17.4992 1.83175 17.1407 2.03736C16.7769 2.24298 16.3077 2.34842 15.8332 2.34842ZM15.8332 0.271163C15.385 0.271163 14.9316 0.371335 14.5942 0.566407C14.2726 0.750936 14.0986 0.993459 14.0986 1.24653C14.0986 1.49959 14.2726 1.74212 14.5942 1.92665C15.2796 2.32206 16.392 2.32206 17.0774 1.92665C17.3938 1.74212 17.573 1.49959 17.573 1.24653C17.573 0.993459 17.399 0.750936 17.0774 0.566407C16.7295 0.366062 16.2813 0.271163 15.8332 0.271163Z" fill="#16110D"/>
<path d="M13.8945 1.32055C13.8945 1.03585 14.0843 0.751146 14.4587 0.534984C15.2126 0.0973881 16.4358 0.0973881 17.1897 0.534984C17.564 0.751146 17.7538 1.03585 17.7538 1.32055" fill="white"/>
<path d="M17.7627 1.51577C17.652 1.51577 17.5624 1.42614 17.5624 1.31542C17.5624 1.09399 17.399 0.872557 17.0984 0.698573C16.4025 0.297882 15.2637 0.297882 14.5678 0.698573C14.2673 0.872557 14.1038 1.08872 14.1038 1.31542C14.1038 1.42614 14.0142 1.51577 13.9035 1.51577C13.7928 1.51577 13.7031 1.42614 13.7031 1.31542C13.7031 0.946367 13.9404 0.603672 14.3674 0.355876C15.1899 -0.118625 16.4763 -0.118625 17.2935 0.355876C17.7206 0.603672 17.9578 0.941095 17.9578 1.31542C17.9578 1.42614 17.8682 1.51577 17.7627 1.51577Z" fill="#16110D"/>
<path d="M9.48912 27.6974C9.45749 27.6974 9.42058 27.6868 9.38895 27.671L8.12361 26.9435C8.06034 26.9066 8.02344 26.8433 8.02344 26.7747V25.9154C8.02344 25.8468 8.06034 25.7783 8.12361 25.7467L9.6262 24.8715C9.7211 24.8187 9.84236 24.8504 9.89508 24.9453C9.94781 25.0402 9.91617 25.1614 9.82127 25.2142L8.41886 26.0314V26.664L9.58402 27.3336C9.67892 27.3863 9.71056 27.5076 9.65784 27.6025C9.62093 27.6605 9.55766 27.6974 9.48912 27.6974Z" fill="#16110D"/>
<path d="M22.1346 27.6972C22.0661 27.6972 21.9976 27.6603 21.9607 27.597C21.9079 27.5021 21.9396 27.3809 22.0345 27.3281L23.2207 26.6533V26.0206L21.6074 25.0716C21.5125 25.0136 21.4809 24.8976 21.5389 24.8027C21.5916 24.7078 21.7129 24.6762 21.8078 24.7342L23.516 25.7412C23.574 25.7781 23.6109 25.8414 23.6109 25.9099V26.7693C23.6109 26.8378 23.574 26.9063 23.5107 26.9433L22.2243 27.6708C22.2032 27.6866 22.1663 27.6972 22.1346 27.6972Z" fill="#16110D"/>
<path d="M12.1018 5.03238C12.0702 5.03238 12.0333 5.02184 12.0016 5.00602L10.731 4.27318C10.6678 4.23627 10.6309 4.17301 10.6309 4.10447V3.32418C10.6309 3.25564 10.6678 3.1871 10.731 3.15547L13.0561 1.81104C13.151 1.75832 13.2723 1.78995 13.325 1.88485C13.3777 1.97975 13.3461 2.10102 13.2512 2.15374L11.0263 3.44016V3.99375L12.1967 4.6686C12.2916 4.72132 12.3232 4.84258 12.2705 4.93748C12.2389 4.99548 12.1704 5.03238 12.1018 5.03238Z" fill="#16110D"/>
<path d="M19.6833 4.95296C19.6148 4.95296 19.5462 4.91605 19.5093 4.85278C19.4566 4.75788 19.4882 4.63662 19.5831 4.5839L20.6165 3.98814V3.43455L18.3863 2.14812C18.2914 2.0954 18.2598 1.97414 18.3125 1.87924C18.3652 1.78434 18.4865 1.75271 18.5814 1.80543L20.9064 3.14985C20.9697 3.18676 21.0066 3.25002 21.0066 3.31856V4.09885C21.0066 4.16739 20.9697 4.23593 20.9064 4.26757L19.7782 4.92132C19.7518 4.94241 19.7202 4.95296 19.6833 4.95296Z" fill="#16110D"/>
</svg>
